SWFN
0.2600	0.0000	45.3181
0.3000	0.0000	25.8007
0.3700	0.0100	18.9914
0.4100	0.0247	17.1723
0.4400	0.0400	16.1699
0.4800	0.0661	15.1240
0.5100	0.0900	14.4887
0.5500	0.1276	13.7809
0.5800	0.1600	13.3288
0.6200	0.2090	12.8056
0.6500	0.2500	12.4609
0.6900	0.3104	12.0521
0.7200	0.3600	11.7771
0.7600	0.4318	11.4452
0.7900	0.4900	11.2185
0.8300	0.5733	10.9414
0.8600	0.6400	10.7499
0.9000	0.7347	10.5136
0.9300	0.8100	10.3489
0.9700	0.9161	10.1439
1.0000	1.0000	10.0000
/
